^C:\USERS\RUDOLF\SOURCE\REPOS\CLIENT\CLIENT\MAIN.CPP
C:\USERS\RUDOLF\SOURCE\REPOS\CLIENT\CLIENT\X64\DEBUG\VC143.PDB
C:\USERS\RUDOLF\SOURCE\REPOS\CLIENT\CLIENT\X64\DEBUG\VC143.IDB
C:\USERS\RUDOLF\SOURCE\REPOS\CLIENT\CLIENT\X64\DEBUG\MAIN.OBJ
